^C:\Users\TwoOneOW\source\repos\ConsoleApplication1\ConsoleApplication1.vcxproj
C:\Users\TwoOneOW\source\repos\ConsoleApplication1\x64\Release\ConsoleApplication1.ipdb
C:\Users\TwoOneOW\source\repos\ConsoleApplication1\x64\Release\ConsoleApplication1.iobj
