^C:\USERS\TWOONEOW\SOURCE\REPOS\CONSOLEAPPLICATION1\X64\RELEASE\CONSOLEAPPLICATION1.OBJ
C:\USERS\TWOONEOW\SOURCE\REPOS\CONSOLEAPPLICATION1\X64\RELEASE\CONSOLEAPPLICATION1.EXE
C:\USERS\TWOONEOW\SOURCE\REPOS\CONSOLEAPPLICATION1\X64\RELEASE\CONSOLEAPPLICATION1.PDB
