^C:\USERS\TWOONEOW\SOURCE\REPOS\CONSOLEAPPLICATION1\CONSOLEAPPLICATION1.CPP
C:\USERS\TWOONEOW\SOURCE\REPOS\CONSOLEAPPLICATION1\X64\DEBUG\VC143.PDB
C:\USERS\TWOONEOW\SOURCE\REPOS\CONSOLEAPPLICATION1\X64\DEBUG\VC143.IDB
C:\USERS\TWOONEOW\SOURCE\REPOS\CONSOLEAPPLICATION1\X64\DEBUG\CONSOLEAPPLICATION1.OBJ
